lab-4-student
…
print(buoy2024)

# A tibble: 8,526 × 18
   YY    MM    DD    hh    mm    WDIR  WSPD  GST   WVHT  DPD   APD   MWD   PRES 
   <chr> <chr> <chr> <chr> <chr> <chr> <chr> <chr> <chr> <chr> <chr> <chr> <chr>
 1 #yr   mo    dy    hr    mn    degT  m/s   m/s   m     sec   sec   degT  hPa  
 2 2024  01    01    00    18    60    2.1   99.0  99.00 99.00 99.00 999   1018…
 3 2024  01    01    01    18    80    1.0   99.0  99.00 99.00 99.00 999   1018…
 4 2024  01    01    02    18    100   1.5   99.0  99.00 99.00 99.00 999   1018…
 5 2024  01    01    03    18    80    1.5   99.0  99.00 99.00 99.00 999   1019…
 6 2024  01    01    04    18    60    1.5   99.0  99.00 99.00 99.00 999   1019…
 7 2024  01    01    05    18    350   4.1   99.0  99.00 99.00 99.00 999   1019…
 8 2024  01    01    06    18    20    4.1   99.0  99.00 99.00 99.00 999   1019…
 9 2024  01    01    07    18    30    4.1   99.0  99.00 99.00 99.00 999   1019…
10 2024  01    01    08    18    60    2.6   99.0  99.00 99.00 99.00 999   1019…
# ℹ 8,516 more rows
# ℹ 5 more variables: ATMP <chr>, WTMP <chr>, DEWP <chr>, VIS <chr>, TIDE <chr>
…
print(buoy2024_row1)

# A tibble: 8,525 × 18
      YY MM    DD    hh    mm     WDIR  WSPD   GST  WVHT   DPD   APD   MWD  PRES
   <dbl> <chr> <chr> <chr> <chr> <dbl> <dbl> <dbl> <dbl> <dbl> <dbl> <dbl> <dbl>
 1  2024 01    01    00    18       60   2.1    99    99    99    99   999 1019.
 2  2024 01    01    01    18       80   1      99    99    99    99   999 1019.
 3  2024 01    01    02    18      100   1.5    99    99    99    99   999 1019.
 4  2024 01    01    03    18       80   1.5    99    99    99    99   999 1019.
 5  2024 01    01    04    18       60   1.5    99    99    99    99   999 1019.
 6  2024 01    01    05    18      350   4.1    99    99    99    99   999 1019.
 7  2024 01    01    06    18       20   4.1    99    99    99    99   999 1019.
 8  2024 01    01    07    18       30   4.1    99    99    99    99   999 1020.
 9  2024 01    01    08    18       60   2.6    99    99    99    99   999 1020.
10  2024 01    01    09    18       70   4.1    99    99    99    99   999 1020.
# ℹ 8,515 more rows
# ℹ 5 more variables: ATMP <dbl>, WTMP <dbl>, DEWP <dbl>, VIS <dbl>, TIDE <dbl>
…
print(buoy2024_clean)

# A tibble: 8,525 × 18
      yy mm    dd    hh    mm_2   wdir  wspd   gst  wvht   dpd   apd   mwd  pres
   <dbl> <chr> <chr> <chr> <chr> <dbl> <dbl> <dbl> <dbl> <dbl> <dbl> <dbl> <dbl>
 1  2024 01    01    00    18       60   2.1    99    99    99    99   999 1019.
 2  2024 01    01    01    18       80   1      99    99    99    99   999 1019.
 3  2024 01    01    02    18      100   1.5    99    99    99    99   999 1019.
 4  2024 01    01    03    18       80   1.5    99    99    99    99   999 1019.
 5  2024 01    01    04    18       60   1.5    99    99    99    99   999 1019.
 6  2024 01    01    05    18      350   4.1    99    99    99    99   999 1019.
 7  2024 01    01    06    18       20   4.1    99    99    99    99   999 1019.
 8  2024 01    01    07    18       30   4.1    99    99    99    99   999 1020.
 9  2024 01    01    08    18       60   2.6    99    99    99    99   999 1020.
10  2024 01    01    09    18       70   4.1    99    99    99    99   999 1020.
# ℹ 8,515 more rows
# ℹ 5 more variables: atmp <dbl>, wtmp <dbl>, dewp <dbl>, vis <dbl>, tide <dbl>
…
Now we will read the data back in, be sure to assign the it a meaningful object name, BUT we are going to do two things:

Specify all column type defaults as character.

Specify NAs as “99” and “999”

Remember that now we are reading back in a data file of type csv. Now when you look at the data we should have NA instead of 99 or 999 in our data, for example:

buoy_new <- read_csv("data-raw/buoy_update.csv",
            col_types = cols(.default = col_character()), 
                 na = c("99", "999"))

print(buoy_new)

# A tibble: 8,525 × 18
   yy    mm    dd    hh    mm_2  wdir  wspd  gst   wvht  dpd   apd   mwd   pres 
   <chr> <chr> <chr> <chr> <chr> <chr> <chr> <chr> <chr> <chr> <chr> <chr> <chr>
 1 2024  01    01    00    18    60    2.1   <NA>  <NA>  <NA>  <NA>  <NA>  1018…
 2 2024  01    01    01    18    80    1     <NA>  <NA>  <NA>  <NA>  <NA>  1018…
 3 2024  01    01    02    18    100   1.5   <NA>  <NA>  <NA>  <NA>  <NA>  1018…
 4 2024  01    01    03    18    80    1.5   <NA>  <NA>  <NA>  <NA>  <NA>  1019…
 5 2024  01    01    04    18    60    1.5   <NA>  <NA>  <NA>  <NA>  <NA>  1019…
 6 2024  01    01    05    18    350   4.1   <NA>  <NA>  <NA>  <NA>  <NA>  1019…
 7 2024  01    01    06    18    20    4.1   <NA>  <NA>  <NA>  <NA>  <NA>  1019…
 8 2024  01    01    07    18    30    4.1   <NA>  <NA>  <NA>  <NA>  <NA>  1019…
 9 2024  01    01    08    18    60    2.6   <NA>  <NA>  <NA>  <NA>  <NA>  1019…
10 2024  01    01    09    18    70    4.1   <NA>  <NA>  <NA>  <NA>  <NA>  1019…
# ℹ 8,515 more rows
# ℹ 5 more variables: atmp <chr>, wtmp <chr>, dewp <chr>, vis <chr>, tide <chr>

This is great! But we created another problem. Now all of our numeric values are being treated like characters and we don’t want that. There are a couple of ways to fix this. We can write and reread in the data setting the column types to double or we can use the readr parsing functions.

Here is the code you can use to fix the data without exporting and importing again (we will learn more about the mutate() function. Insert whatever you called your buoy data on the last import for your_file_name.

buoy_final <- buoy_new |> 
  mutate(across(.cols = everything(), ~parse_double(.x)))

print(buoy_final)

# A tibble: 8,525 × 18
      yy    mm    dd    hh  mm_2  wdir  wspd   gst  wvht   dpd   apd   mwd  pres
   <dbl> <dbl> <dbl> <dbl> <dbl> <dbl> <dbl> <dbl> <dbl> <dbl> <dbl> <dbl> <dbl>
 1  2024     1     1     0    18    60   2.1    NA    NA    NA    NA    NA 1019.
 2  2024     1     1     1    18    80   1      NA    NA    NA    NA    NA 1019.
 3  2024     1     1     2    18   100   1.5    NA    NA    NA    NA    NA 1019.
 4  2024     1     1     3    18    80   1.5    NA    NA    NA    NA    NA 1019.
 5  2024     1     1     4    18    60   1.5    NA    NA    NA    NA    NA 1019.
 6  2024     1     1     5    18   350   4.1    NA    NA    NA    NA    NA 1019.
 7  2024     1     1     6    18    20   4.1    NA    NA    NA    NA    NA 1019.
 8  2024     1     1     7    18    30   4.1    NA    NA    NA    NA    NA 1020.
 9  2024     1     1     8    18    60   2.6    NA    NA    NA    NA    NA 1020.
10  2024     1     1     9    18    70   4.1    NA    NA    NA    NA    NA 1020.
# ℹ 8,515 more rows
# ℹ 5 more variables: atmp <dbl>, wtmp <dbl>, dewp <dbl>, vis <dbl>, tide <dbl>
…
